{
  "home": {
    "title": "Entraide CHATONS",
    "description": "Un sélecteur aléatoire de services libres pour décentraliser et découvrir un web à l'échelle humaine, solidaire et respectueux de votre vie privée"
  },
  "navbar": {
    "language": "Langue",
    "translate": "Traduire sur Weblate"
  },
  "service": {
    "visio_conf": {
      "title": "Visio-conférence",
      "description": "Visio-conférence en petit groupe, sans inscription, directement dans le navigateur.",
      "placeholder": "Nom du salon"
    },
    "pad": {
      "title": "Rédaction collaborative",
      "description": "Un pad est un éditeur de texte collaboratif en temps réel. On peut y écrire simultanément.",
      "placeholder": "Nom du document"
    },
    "date": {
      "title": "Prise de rdv",
      "description": "Planifier un rendez-vous ou prendre des décisions rapidement et simplement.",
      "placeholder": "Créer un sondage"
    },
    "file_sharing": {
      "title": "Partage de fichiers",
      "description": "Partage de fichiers volumineux de façon confidentielle et sans inscription.",
      "placeholder": "Téléverser des fichiers"
    },
    "url_shortener": {
      "title": "Raccourcisseur de liens",
      "description": "Raccourcisseur de liens sans inscription",
      "placeholder": "Raccourcir un lien"
    },
    "picture_sharing": {
      "title": "Partage d'images",
      "description": "Partage d'images sous forme de galleries. Rapide et sans inscription.",
      "placeholder": "Téléverser des images"
    },
    "calc": {
      "title": "Tableur collaboratif",
      "description": "Tableur collaboratif en temps réel. On peut y écrire simultanément.",
      "placeholder": "Nom du tableur"
    },
    "instance": "Instance",
    "changeInstance": "Changer d'instance",
    "providedBy": "Fournit par",
    "create": "Créer",
    "other_instances": "Autres instances et documentation"
  },
  "footer": {
    "madeBy": "Fait par le collectif",
    "illustrationsBy": "Illustrations par",
    "contentsUnderLicence": "Contenus sous licence",
    "sourceCode": "Code source"
  }
}
